{
	"info": {
		"_postman_id": "b7b78b04-06da-4908-8c99-72467106c26d",
		"name": "s35",
		"schema": "https://schema.getpostman.com/json/collection/v2.1.0/collection.json",
		"_exporter_id": "27193795"
	},
	"item": [
		{
			"name": "discussion",
			"item": [
				{
					"name": "POST add task",
					"request": {
						"method": "POST",
						"header": [],
						"body": {
							"mode": "raw",
							"raw": "{\r\n    \"name\" : \"Activity\"\r\n}",
							"options": {
								"raw": {
									"language": "json"
								}
							}
						},
						"url": {
							"raw": "localhost:3001/tasks",
							"host": [
								"localhost"
							],
							"port": "3001",
							"path": [
								"tasks"
							]
						}
					},
					"response": []
				},
				{
					"name": "GET all tasks",
					"request": {
						"method": "GET",
						"header": [],
						"url": {
							"raw": "localhost:3001/tasks",
							"host": [
								"localhost"
							],
							"port": "3001",
							"path": [
								"tasks"
							]
						}
					},
					"response": []
				}
			]
		},
		{
			"name": "activity",
			"item": [
				{
					"name": "POST add user",
					"request": {
						"method": "POST",
						"header": [],
						"body": {
							"mode": "raw",
							"raw": "{\r\n    \"username\" : \"john\",\r\n    \"password\" : \"johndoe\"\r\n}",
							"options": {
								"raw": {
									"language": "json"
								}
							}
						},
						"url": {
							"raw": "localhost:3001/signup",
							"host": [
								"localhost"
							],
							"port": "3001",
							"path": [
								"signup"
							]
						}
					},
					"response": []
				}
			]
		}
	]
}