{
	"info": {
		"_postman_id": "8e4818dd-fb2f-4d45-b8cf-c05a81dc7ba4",
		"name": "s34",
		"schema": "https://schema.getpostman.com/json/collection/v2.1.0/collection.json",
		"_exporter_id": "27193795"
	},
	"item": [
		{
			"name": "discussion",
			"item": [
				{
					"name": "GET  show hello world",
					"request": {
						"method": "GET",
						"header": [],
						"url": {
							"raw": "localhost:4000/",
							"host": [
								"localhost"
							],
							"port": "4000",
							"path": [
								""
							]
						}
					},
					"response": []
				},
				{
					"name": "GET /hello",
					"request": {
						"method": "GET",
						"header": [],
						"url": {
							"raw": "localhost:4000/hello",
							"host": [
								"localhost"
							],
							"port": "4000",
							"path": [
								"hello"
							]
						}
					},
					"response": []
				},
				{
					"name": "POST greetings",
					"request": {
						"method": "POST",
						"header": [],
						"body": {
							"mode": "raw",
							"raw": "{\r\n    \"firstName\": \"Chris\", \r\n    \"lastName\" : \"Pogi\"\r\n}",
							"options": {
								"raw": {
									"language": "json"
								}
							}
						},
						"url": {
							"raw": "localhost:4000/hello",
							"host": [
								"localhost"
							],
							"port": "4000",
							"path": [
								"hello"
							]
						}
					},
					"response": []
				},
				{
					"name": "POST signup",
					"request": {
						"method": "POST",
						"header": [],
						"body": {
							"mode": "raw",
							"raw": "{\r\n    \"username\" : \"bossmapagmahal\",\r\n    \"password\" : \"ik4wlangsapatna\"\r\n}",
							"options": {
								"raw": {
									"language": "json"
								}
							}
						},
						"url": {
							"raw": "localhost:4000/signup",
							"host": [
								"localhost"
							],
							"port": "4000",
							"path": [
								"signup"
							]
						}
					},
					"response": []
				},
				{
					"name": "PUT change password",
					"request": {
						"method": "PUT",
						"header": [],
						"body": {
							"mode": "raw",
							"raw": "{\r\n    \"username\" : \"bossmapagmahal\",\r\n    \"password\" : \"ik4wlangsapatna\"\r\n}",
							"options": {
								"raw": {
									"language": "json"
								}
							}
						},
						"url": {
							"raw": "localhost:4000/change-password",
							"host": [
								"localhost"
							],
							"port": "4000",
							"path": [
								"change-password"
							]
						}
					},
					"response": []
				}
			]
		},
		{
			"name": "activity",
			"item": [
				{
					"name": "GET home",
					"request": {
						"method": "GET",
						"header": [],
						"url": {
							"raw": "http://localhost:4000/home",
							"protocol": "http",
							"host": [
								"localhost"
							],
							"port": "4000",
							"path": [
								"home"
							]
						}
					},
					"response": []
				},
				{
					"name": "GET users",
					"request": {
						"method": "GET",
						"header": [],
						"url": {
							"raw": "http://localhost:4000/users",
							"protocol": "http",
							"host": [
								"localhost"
							],
							"port": "4000",
							"path": [
								"users"
							]
						}
					},
					"response": []
				},
				{
					"name": "DELETE user",
					"request": {
						"method": "DELETE",
						"header": [],
						"body": {
							"mode": "raw",
							"raw": "{\r\n    \"username\" : \"bossmapagmahal\"\r\n}",
							"options": {
								"raw": {
									"language": "json"
								}
							}
						},
						"url": {
							"raw": "http://localhost:4000/delete-user",
							"protocol": "http",
							"host": [
								"localhost"
							],
							"port": "4000",
							"path": [
								"delete-user"
							]
						}
					},
					"response": []
				}
			]
		}
	]
}