{
  "orderProductId": 1,
  "orderId": 1,
  "productId": 2,
  "quantity": 1,
  "price": 15450,
  "subTotal": 15450
}

{
  "orderProductId": 2,
  "orderId": 2,
  "productId": 1,
  "quantity": 2,
  "price": 168400,
  "subTotal": 168400
}

